{
  "publicApiKey": "JA9ilckxP8t60ls06FXfJNf6FJmK14FT1iDj0OSK",
  "secretApiKey": "e1mVZ3ZsduBIXvwYdbrJx6C6BDjdrpMOxUypL29",
  "tradePairSymbol": "xemuah",
  "amountOfCurrencyToOneBuyOrder": 3.0,
  "percentOfDesireProfit": 0.5,
  "amountOfCurrencyForTrade": 20.0
}